key,val
Description,traction 0°
ep,6.15
lar,7.30
test_type,Traction
vit,5
Dir,0
SkipEndPoints,2


id,t_s,Volatge_V,Force_N,img_name
0,0.07900476455688477,0.019907841896298996,-0.1840585254663562,Trac1_0000.png
1,5.219298601150513,0.21196024826150225,383.3837592600405,Trac1_0001.png
2,6.915395498275757,0.4630313726509728,884.8239917135465,Trac1_0002.png
3,9.211526870727539,0.7152593343280635,1388.5746641263502,Trac1_0003.png
4,11.851677894592285,0.970080327354472,1897.5041489004834,Trac1_0004.png
5,14.861850023269653,1.2218054438565524,2400.250536961359,Trac1_0005.png
6,17.289989233016968,1.4803795903171924,2916.6758344661325,Trac1_0006.png
7,19.522116661071777,1.7318253414336886,3418.864272885338,Trac1_0007.png
8,21.84024930000305,1.9892031919829387,3932.9003235129594,Trac1_0008.png
9,24.09937834739685,2.240826398075008,4435.44317570403,Trac1_0009.png
10,26.376508712768555,2.4912073046274887,4935.50490239163,Trac1_0010.png
11,28.744644165039062,2.7442798345515538,5440.942349813369,Trac1_0011.png
12,31.19578456878662,2.9972964855315674,5946.26819558931,Trac1_0012.png
13,33.80593395233154,3.2506943598041294,6452.355422017435,Trac1_0013.png
14,36.78710436820984,3.504276267917376,6958.810201552579,Trac1_0014.png
15,40.61132287979126,3.7581966743382185,7465.941031232711,Trac1_0015.png
16,45.57460689544678,4.012074346481476,7972.986511846368,Trac1_0016.png
17,50.66989827156067,4.231345324352175,8410.915367190284,Trac1_0017.png
18,55.823193073272705,4.428100588323298,8803.875750595764,Trac1_0018.png
19,60.90748381614685,4.601975340666307,9151.13908661136,Trac1_0019.png
20,66.0457775592804,4.76091958912777,9468.583161828981,Trac1_0020.png
21,71.15106964111328,4.901525250591,9749.40133930697,Trac1_0021.png
22,76.27536273002625,5.0290244093164,10004.043158211307,Trac1_0022.png
23,81.39165544509888,5.142424547923742,10230.526358944962,Trac1_0023.png
24,86.53394937515259,5.24275433678367,10430.905405998943,Trac1_0024.png
25,91.64424204826355,5.32999077120245,10605.13435430887,Trac1_0025.png
26,96.76653504371643,5.405941418020507,10756.823283444195,Trac1_0026.png
27,101.86282634735107,5.470944785557327,10886.64826354569,Trac1_0027.png
28,106.97611880302429,5.528159185301242,11000.917086681133,Trac1_0028.png
29,112.05340933799744,5.575796770235735,11096.059057790566,Trac1_0029.png
30,117.14970064163208,5.61560266357597,11175.559543790634,Trac1_0030.png
31,122.29099464416504,5.649114939960648,11242.49039337058,Trac1_0031.png
32,127.3612847328186,5.677763219995886,11299.706850401211,Trac1_0032.png
33,132.47957754135132,5.699391570346758,11342.903076386578,Trac1_0033.png
34,137.62487196922302,5.714417374549521,11372.912671359141,Trac1_0034.png
35,142.71016263961792,5.723106837852636,11390.267301483196,Trac1_0035.png
36,147.78945326805115,5.7237805670415245,11391.612876056572,Trac1_0036.png
37,152.88174438476562,5.7050147442343215,11354.133701286844,Trac1_0037.png
38,155.56789803504944,5.441106797152103,10827.055716301385,Trac1_0038.png
39,155.6999056339264,5.1168326953558205,10179.4142108165,Trac1_0039.png
40,155.91791820526123,0.3033573571843814,565.9224229765956,Trac1_0040.png
41,156.05392599105835,-0.02061782243441872,-81.12207396528605,Trac1_0041.png
42,161.17621898651123,-0.018599919755055365,-77.09191083494181,Trac1_0042.png
